global_brightness/simulation/qsim/global_brightness.msim.vcd
$comment
	File created using the following command:
		vcd file global_brightness.msim.vcd -direction
$end
$date
	Sun Mar 30 20:15:13 2025
$end
$version
	ModelSim Version 2020.1
$end
$timescale
	1ps
$end

$scope module global_brightness_vhd_vec_tst $end
$var wire 1 ! brightnessin [7] $end
$var wire 1 " brightnessin [6] $end
$var wire 1 # brightnessin [5] $end
$var wire 1 $ brightnessin [4] $end
$var wire 1 % brightnessin [3] $end
$var wire 1 & brightnessin [2] $end
$var wire 1 ' brightnessin [1] $end
$var wire 1 ( brightnessin [0] $end
$var wire 1 ) brightnessout [7] $end
$var wire 1 * brightnessout [6] $end
$var wire 1 + brightnessout [5] $end
$var wire 1 , brightnessout [4] $end
$var wire 1 - brightnessout [3] $end
$var wire 1 . brightnessout [2] $end
$var wire 1 / brightnessout [1] $end
$var wire 1 0 brightnessout [0] $end
$var wire 1 1 en $end

$scope module i1 $end
$var wire 1 2 gnd $end
$var wire 1 3 vcc $end
$var wire 1 4 unknown $end
$var wire 1 5 devoe $end
$var wire 1 6 devclrn $end
$var wire 1 7 devpor $end
$var wire 1 8 ww_devoe $end
$var wire 1 9 ww_devclrn $end
$var wire 1 : ww_devpor $end
$var wire 1 ; ww_en $end
$var wire 1 < ww_brightnessin [7] $end
$var wire 1 = ww_brightnessin [6] $end
$var wire 1 > ww_brightnessin [5] $end
$var wire 1 ? ww_brightnessin [4] $end
$var wire 1 @ ww_brightnessin [3] $end
$var wire 1 A ww_brightnessin [2] $end
$var wire 1 B ww_brightnessin [1] $end
$var wire 1 C ww_brightnessin [0] $end
$var wire 1 D ww_brightnessout [7] $end
$var wire 1 E ww_brightnessout [6] $end
$var wire 1 F ww_brightnessout [5] $end
$var wire 1 G ww_brightnessout [4] $end
$var wire 1 H ww_brightnessout [3] $end
$var wire 1 I ww_brightnessout [2] $end
$var wire 1 J ww_brightnessout [1] $end
$var wire 1 K ww_brightnessout [0] $end
$var wire 1 L \brightnessout[0]~output_o\ $end
$var wire 1 M \brightnessout[1]~output_o\ $end
$var wire 1 N \brightnessout[2]~output_o\ $end
$var wire 1 O \brightnessout[3]~output_o\ $end
$var wire 1 P \brightnessout[4]~output_o\ $end
$var wire 1 Q \brightnessout[5]~output_o\ $end
$var wire 1 R \brightnessout[6]~output_o\ $end
$var wire 1 S \brightnessout[7]~output_o\ $end
$var wire 1 T \brightnessin[0]~input_o\ $end
$var wire 1 U \en~input_o\ $end
$var wire 1 V \brightnessin[1]~input_o\ $end
$var wire 1 W \brightnessin[2]~input_o\ $end
$var wire 1 X \brightnessin[3]~input_o\ $end
$var wire 1 Y \brightnessin[4]~input_o\ $end
$var wire 1 Z \brightnessin[5]~input_o\ $end
$var wire 1 [ \brightnessin[6]~input_o\ $end
$var wire 1 \ \brightnessin[7]~input_o\ $end
$upscope $end
$upscope $end
$enddefinitions $end
#0
$dumpvars
01
02
13
x4
15
16
17
18
19
1:
0;
zL
zM
zN
zO
zP
zQ
zR
zS
0T
0U
0V
0W
0X
0Y
0Z
0[
1\
1!
0"
0#
0$
0%
0&
0'
0(
1<
0=
0>
0?
0@
0A
0B
0C
zD
zE
zF
zG
zH
zI
zJ
zK
z)
z*
z+
z,
z-
z.
z/
z0
$end
#10000
11
1;
1U
0L
0M
0N
0O
0P
0Q
0R
1S
0K
0J
0I
0H
0G
0F
0E
1D
00
0/
0.
0-
0,
0+
0*
1)
#100000
01
0;
0U
zL
zM
zN
zO
zP
zQ
zR
zS
zK
zJ
zI
zH
zG
zF
zE
zD
z0
z/
z.
z-
z,
z+
z*
z)
#180000
1$
1?
1Y
#260000
11
1;
1U
0L
0M
0N
0O
1P
0Q
0R
1S
0K
0J
0I
0H
1G
0F
0E
1D
00
0/
0.
0-
1,
0+
0*
1)
#420000
01
0;
0U
zL
zM
zN
zO
zP
zQ
zR
zS
zK
zJ
zI
zH
zG
zF
zE
zD
z0
z/
z.
z-
z,
z+
z*
z)
#590000
11
1;
1U
0L
0M
0N
0O
1P
0Q
0R
1S
0K
0J
0I
0H
1G
0F
0E
1D
00
0/
0.
0-
1,
0+
0*
1)
#620000
0!
0<
0\
0S
0D
0)
#940000
01
0;
0U
zL
zM
zN
zO
zP
zQ
zR
zS
zK
zJ
zI
zH
zG
zF
zE
zD
z0
z/
z.
z-
z,
z+
z*
z)
