gammapwm/simulation/qsim/gammapwm.msim.vcd
$comment
	File created using the following command:
		vcd file gammapwm.msim.vcd -direction
$end
$date
	Sat Apr 12 11:21:32 2025
$end
$version
	ModelSim Version 2020.1
$end
$timescale
	1ps
$end

$scope module gammapwm_vhd_vec_tst $end
$var wire 1 ! brightnessIn [7] $end
$var wire 1 " brightnessIn [6] $end
$var wire 1 # brightnessIn [5] $end
$var wire 1 $ brightnessIn [4] $end
$var wire 1 % brightnessIn [3] $end
$var wire 1 & brightnessIn [2] $end
$var wire 1 ' brightnessIn [1] $end
$var wire 1 ( brightnessIn [0] $end
$var wire 1 ) clk $end
$var wire 1 * load $end
$var wire 1 + output $end
$var wire 1 , reset $end

$scope module i1 $end
$var wire 1 - gnd $end
$var wire 1 . vcc $end
$var wire 1 / unknown $end
$var wire 1 0 devoe $end
$var wire 1 1 devclrn $end
$var wire 1 2 devpor $end
$var wire 1 3 ww_devoe $end
$var wire 1 4 ww_devclrn $end
$var wire 1 5 ww_devpor $end
$var wire 1 6 ww_clk $end
$var wire 1 7 ww_brightnessIn [7] $end
$var wire 1 8 ww_brightnessIn [6] $end
$var wire 1 9 ww_brightnessIn [5] $end
$var wire 1 : ww_brightnessIn [4] $end
$var wire 1 ; ww_brightnessIn [3] $end
$var wire 1 < ww_brightnessIn [2] $end
$var wire 1 = ww_brightnessIn [1] $end
$var wire 1 > ww_brightnessIn [0] $end
$var wire 1 ? ww_reset $end
$var wire 1 @ ww_load $end
$var wire 1 A ww_output $end
$var wire 1 B \output~output_o\ $end
$var wire 1 C \clk~input_o\ $end
$var wire 1 D \Add0~29_sumout\ $end
$var wire 1 E \reset~input_o\ $end
$var wire 1 F \Add0~30\ $end
$var wire 1 G \Add0~25_sumout\ $end
$var wire 1 H \Add0~26\ $end
$var wire 1 I \Add0~21_sumout\ $end
$var wire 1 J \Add0~22\ $end
$var wire 1 K \Add0~1_sumout\ $end
$var wire 1 L \Add0~2\ $end
$var wire 1 M \Add0~17_sumout\ $end
$var wire 1 N \Add0~18\ $end
$var wire 1 O \Add0~5_sumout\ $end
$var wire 1 P \Add0~6\ $end
$var wire 1 Q \Add0~13_sumout\ $end
$var wire 1 R \Add0~14\ $end
$var wire 1 S \Add0~9_sumout\ $end
$var wire 1 T \brightnessIn[4]~input_o\ $end
$var wire 1 U \load~input_o\ $end
$var wire 1 V \brightness_reg[7]~0_combout\ $end
$var wire 1 W \brightnessIn[3]~input_o\ $end
$var wire 1 X \brightnessIn[2]~input_o\ $end
$var wire 1 Y \brightnessIn[1]~input_o\ $end
$var wire 1 Z \Mux2~0_combout\ $end
$var wire 1 [ \brightnessIn[7]~input_o\ $end
$var wire 1 \ \brightnessIn[5]~input_o\ $end
$var wire 1 ] \brightnessIn[6]~input_o\ $end
$var wire 1 ^ \Mux0~0_combout\ $end
$var wire 1 _ \Mux1~0_combout\ $end
$var wire 1 ` \Mux1~1_combout\ $end
$var wire 1 a \Mux1~2_combout\ $end
$var wire 1 b \LessThan0~0_combout\ $end
$var wire 1 c \Mux3~0_combout\ $end
$var wire 1 d \Mux3~1_combout\ $end
$var wire 1 e \Mux3~2_combout\ $end
$var wire 1 f \brightnessIn[0]~input_o\ $end
$var wire 1 g \Mux3~3_combout\ $end
$var wire 1 h \Mux3~4_combout\ $end
$var wire 1 i \Mux2~3_combout\ $end
$var wire 1 j \Mux2~2_combout\ $end
$var wire 1 k \Mux2~1_combout\ $end
$var wire 1 l \Mux2~4_combout\ $end
$var wire 1 m \LessThan0~1_combout\ $end
$var wire 1 n \Mux4~0_combout\ $end
$var wire 1 o \Mux4~1_combout\ $end
$var wire 1 p \Mux4~2_combout\ $end
$var wire 1 q \Mux4~3_combout\ $end
$var wire 1 r \Mux5~0_combout\ $end
$var wire 1 s \Mux5~1_combout\ $end
$var wire 1 t \Mux5~2_combout\ $end
$var wire 1 u \Mux5~3_combout\ $end
$var wire 1 v \Mux5~4_combout\ $end
$var wire 1 w \Mux6~0_combout\ $end
$var wire 1 x \Mux6~1_combout\ $end
$var wire 1 y \Mux6~2_combout\ $end
$var wire 1 z \Mux6~3_combout\ $end
$var wire 1 { \Mux6~4_combout\ $end
$var wire 1 | \Mux7~0_combout\ $end
$var wire 1 } \Mux7~1_combout\ $end
$var wire 1 ~ \Mux7~2_combout\ $end
$var wire 1 !! \Mux7~3_combout\ $end
$var wire 1 "! \Mux7~4_combout\ $end
$var wire 1 #! \LessThan0~2_combout\ $end
$var wire 1 $! \LessThan0~3_combout\ $end
$var wire 1 %! \LessThan0~4_combout\ $end
$var wire 1 &! \LessThan0~5_combout\ $end
$var wire 1 '! cnt [7] $end
$var wire 1 (! cnt [6] $end
$var wire 1 )! cnt [5] $end
$var wire 1 *! cnt [4] $end
$var wire 1 +! cnt [3] $end
$var wire 1 ,! cnt [2] $end
$var wire 1 -! cnt [1] $end
$var wire 1 .! cnt [0] $end
$var wire 1 /! brightness_reg [7] $end
$var wire 1 0! brightness_reg [6] $end
$var wire 1 1! brightness_reg [5] $end
$var wire 1 2! brightness_reg [4] $end
$var wire 1 3! brightness_reg [3] $end
$var wire 1 4! brightness_reg [2] $end
$var wire 1 5! brightness_reg [1] $end
$var wire 1 6! brightness_reg [0] $end
$var wire 1 7! ALT_INV_cnt [7] $end
$var wire 1 8! ALT_INV_cnt [6] $end
$var wire 1 9! ALT_INV_cnt [5] $end
$var wire 1 :! ALT_INV_cnt [4] $end
$var wire 1 ;! ALT_INV_cnt [3] $end
$var wire 1 <! ALT_INV_cnt [2] $end
$var wire 1 =! ALT_INV_cnt [1] $end
$var wire 1 >! ALT_INV_cnt [0] $end
$var wire 1 ?! ALT_INV_brightness_reg [7] $end
$var wire 1 @! ALT_INV_brightness_reg [6] $end
$var wire 1 A! ALT_INV_brightness_reg [5] $end
$var wire 1 B! ALT_INV_brightness_reg [4] $end
$var wire 1 C! ALT_INV_brightness_reg [3] $end
$var wire 1 D! ALT_INV_brightness_reg [2] $end
$var wire 1 E! ALT_INV_brightness_reg [1] $end
$var wire 1 F! ALT_INV_brightness_reg [0] $end
$var wire 1 G! \ALT_INV_load~input_o\ $end
$var wire 1 H! \ALT_INV_reset~input_o\ $end
$var wire 1 I! \ALT_INV_LessThan0~4_combout\ $end
$var wire 1 J! \ALT_INV_LessThan0~3_combout\ $end
$var wire 1 K! \ALT_INV_LessThan0~2_combout\ $end
$var wire 1 L! \ALT_INV_Mux7~4_combout\ $end
$var wire 1 M! \ALT_INV_Mux7~3_combout\ $end
$var wire 1 N! \ALT_INV_Mux7~2_combout\ $end
$var wire 1 O! \ALT_INV_Mux7~1_combout\ $end
$var wire 1 P! \ALT_INV_Mux7~0_combout\ $end
$var wire 1 Q! \ALT_INV_Mux6~4_combout\ $end
$var wire 1 R! \ALT_INV_Mux6~3_combout\ $end
$var wire 1 S! \ALT_INV_Mux6~2_combout\ $end
$var wire 1 T! \ALT_INV_Mux6~1_combout\ $end
$var wire 1 U! \ALT_INV_Mux6~0_combout\ $end
$var wire 1 V! \ALT_INV_Mux5~4_combout\ $end
$var wire 1 W! \ALT_INV_Mux5~3_combout\ $end
$var wire 1 X! \ALT_INV_Mux5~2_combout\ $end
$var wire 1 Y! \ALT_INV_Mux5~1_combout\ $end
$var wire 1 Z! \ALT_INV_Mux5~0_combout\ $end
$var wire 1 [! \ALT_INV_Mux4~3_combout\ $end
$var wire 1 \! \ALT_INV_Mux4~2_combout\ $end
$var wire 1 ]! \ALT_INV_Mux4~1_combout\ $end
$var wire 1 ^! \ALT_INV_Mux4~0_combout\ $end
$var wire 1 _! \ALT_INV_LessThan0~1_combout\ $end
$var wire 1 `! \ALT_INV_Mux2~3_combout\ $end
$var wire 1 a! \ALT_INV_Mux2~2_combout\ $end
$var wire 1 b! \ALT_INV_Mux3~2_combout\ $end
$var wire 1 c! \ALT_INV_Mux3~3_combout\ $end
$var wire 1 d! \ALT_INV_Mux2~4_combout\ $end
$var wire 1 e! \ALT_INV_Mux2~0_combout\ $end
$var wire 1 f! \ALT_INV_Mux0~0_combout\ $end
$var wire 1 g! \ALT_INV_Mux1~0_combout\ $end
$var wire 1 h! \ALT_INV_Mux1~1_combout\ $end
$var wire 1 i! \ALT_INV_Mux1~2_combout\ $end
$var wire 1 j! \ALT_INV_LessThan0~0_combout\ $end
$var wire 1 k! \ALT_INV_Mux3~0_combout\ $end
$var wire 1 l! \ALT_INV_Mux3~1_combout\ $end
$var wire 1 m! \ALT_INV_Mux3~4_combout\ $end
$var wire 1 n! \ALT_INV_Mux2~1_combout\ $end
$upscope $end
$upscope $end
$enddefinitions $end
#0
$dumpvars
0)
0*
0+
0,
0-
1.
x/
10
11
12
13
14
15
06
0?
0@
0A
0B
0C
1D
0E
0F
0G
0H
0I
0J
0K
0L
0M
0N
0O
0P
0Q
0R
0S
0T
0U
0V
0W
0X
0Y
0Z
1[
1\
0]
0^
0_
0`
0a
1b
0c
0d
0e
0f
1g
0h
0i
0j
1k
0l
1m
0n
1o
1p
0q
0r
1s
0t
0u
0v
0w
1x
0y
0z
0{
0|
0}
1~
0!!
0"!
0#!
0$!
1%!
0&!
1G!
1H!
0I!
1J!
1K!
1L!
1M!
0N!
1O!
1P!
1Q!
1R!
1S!
0T!
1U!
1V!
1W!
1X!
0Y!
1Z!
1[!
0\!
0]!
1^!
0_!
1`!
1a!
1b!
0c!
1d!
1e!
1f!
1g!
1h!
1i!
0j!
1k!
1l!
1m!
0n!
1!
0"
1#
0$
0%
0&
0'
0(
17
08
19
0:
0;
0<
0=
0>
0'!
0(!
0)!
0*!
0+!
0,!
0-!
0.!
0/!
00!
01!
02!
03!
04!
05!
06!
17!
18!
19!
1:!
1;!
1<!
1=!
1>!
1?!
1@!
1A!
1B!
1C!
1D!
1E!
1F!
$end
#250
1)
16
1C
1.!
0>!
0D
1F
1G
#500
0)
06
0C
#750
1)
16
1C
0.!
1-!
0=!
1>!
1D
0F
0G
1H
1I
1G
0H
0I
#1000
0)
06
0C
#1250
1)
16
1C
1.!
0>!
0D
1F
0G
1H
1I
#1500
0)
06
0C
#1750
1)
16
1C
0.!
0-!
1,!
0<!
1=!
1>!
1D
0F
1G
0H
0I
1J
1K
1I
0J
0G
0K
#2000
0)
06
0C
#2250
1)
16
1C
1.!
0>!
0D
1F
1G
#2500
0)
06
0C
#2750
1)
16
1C
0.!
1-!
0=!
1>!
1D
0F
0G
1H
0I
1J
1G
0H
1I
0J
1K
0K
#3000
0)
06
0C
#3250
1)
16
1C
1.!
0>!
0D
1F
0G
1H
0I
1J
1K
#3500
0)
06
0C
#3750
1)
16
1C
0.!
0-!
0,!
1+!
0;!
1<!
1=!
1>!
1D
0F
1G
0H
1I
0J
0K
1L
1M
1K
0L
0I
0G
0M
#4000
0)
06
0C
#4250
1)
16
1C
1.!
0>!
0D
1F
1G
#4500
0)
06
0C
#4750
1)
16
1C
0.!
1-!
0=!
1>!
1D
0F
0G
1H
1I
1G
0H
0I
#5000
0)
06
0C
#5250
1)
16
1C
1.!
0>!
0D
1F
0G
1H
1I
#5500
0)
06
0C
#5750
1)
16
1C
0.!
0-!
1,!
0<!
1=!
1>!
1D
0F
1G
0H
0I
1J
0K
1L
1I
0J
0G
1K
0L
1M
0M
#6000
0)
06
0C
#6250
1)
16
1C
1.!
0>!
0D
1F
1G
#6500
0)
06
0C
#6750
1)
16
1C
0.!
1-!
0=!
1>!
1D
0F
0G
1H
0I
1J
1G
0H
1I
0J
0K
1L
1M
1K
0L
0M
#7000
0)
06
0C
#7250
1)
16
1C
1.!
0>!
0D
1F
0G
1H
0I
1J
0K
1L
1M
#7500
0)
06
0C
#7750
1)
16
1C
0.!
0-!
0,!
0+!
1*!
0:!
1;!
1<!
1=!
1>!
1D
0F
1G
0H
1I
0J
1K
0L
0M
1N
0m
1_!
1O
1M
0N
0K
0I
0G
0O
#8000
0)
06
0C
#8250
1)
16
1C
1.!
0>!
0D
1F
1G
#8500
0)
06
0C
#8750
1)
16
1C
0.!
1-!
0=!
1>!
1D
0F
0G
1H
1I
1G
0H
0I
#9000
0)
06
0C
#9250
1)
16
1C
1.!
0>!
0D
1F
0G
1H
1I
#9500
0)
06
0C
#9750
1)
16
1C
0.!
0-!
1,!
0<!
1=!
1>!
1D
0F
1G
0H
0I
1J
1K
1I
0J
0G
0K
#10000
0)
1"
06
18
1]
0C
#10250
1)
16
1C
1.!
0>!
0D
1F
1G
#10500
0)
06
0C
#10750
1)
16
1C
0.!
1-!
0=!
1>!
1D
0F
0G
1H
0I
1J
1G
0H
1I
0J
1K
0K
#11000
0)
06
0C
#11250
1)
16
1C
1.!
0>!
0D
1F
0G
1H
0I
1J
1K
#11500
0)
06
0C
#11750
1)
16
1C
0.!
0-!
0,!
1+!
0;!
1<!
1=!
1>!
1D
0F
1G
0H
1I
0J
0K
1L
0M
1N
1K
0L
0I
0G
1M
0N
1O
0O
#12000
0)
06
0C
#12250
1)
16
1C
1.!
0>!
0D
1F
1G
#12500
0)
06
0C
#12750
1)
16
1C
0.!
1-!
0=!
1>!
1D
0F
0G
1H
1I
1G
0H
0I
#13000
0)
06
0C
#13250
1)
16
1C
1.!
0>!
0D
1F
0G
1H
1I
#13500
0)
06
0C
#13750
1)
16
1C
0.!
0-!
1,!
0<!
1=!
1>!
1D
0F
1G
0H
0I
1J
0K
1L
1I
0J
0G
1K
0L
0M
1N
1O
1M
0N
0O
#14000
0)
06
0C
#14250
1)
16
1C
1.!
0>!
0D
1F
1G
#14500
0)
06
0C
#14750
1)
16
1C
0.!
1-!
0=!
1>!
1D
0F
0G
1H
0I
1J
1G
0H
1I
0J
0K
1L
0M
1N
1K
0L
1M
0N
1O
0O
#15000
0)
06
0C
#15250
1)
16
1C
1.!
0>!
0D
1F
0G
1H
0I
1J
0K
1L
0M
1N
1O
#15500
0)
06
0C
#15750
1)
16
1C
0.!
0-!
0,!
0+!
0*!
1)!
09!
1:!
1;!
1<!
1=!
1>!
1D
0F
1G
0H
1I
0J
1K
0L
1M
0N
0O
1P
1Q
1O
0P
0M
0K
0I
0G
0Q
#16000
0)
06
0C
#16250
1)
16
1C
1.!
0>!
0D
1F
1G
#16500
0)
06
0C
#16750
1)
16
1C
0.!
1-!
0=!
1>!
1D
0F
0G
1H
1I
1G
0H
0I
#17000
0)
06
0C
#17250
1)
16
1C
1.!
0>!
0D
1F
0G
1H
1I
#17500
0)
06
0C
#17750
1)
16
1C
0.!
0-!
1,!
0<!
1=!
1>!
1D
0F
1G
0H
0I
1J
1K
1I
0J
0G
0K
#18000
0)
06
0C
#18250
1)
16
1C
1.!
0>!
0D
1F
1G
#18500
0)
06
0C
#18750
1)
16
1C
0.!
1-!
0=!
1>!
1D
0F
0G
1H
0I
1J
1G
0H
1I
0J
1K
0K
#19000
0)
06
0C
#19250
1)
16
1C
1.!
0>!
0D
1F
0G
1H
0I
1J
1K
#19500
0)
06
0C
#19750
1)
16
1C
0.!
0-!
0,!
1+!
0;!
1<!
1=!
1>!
1D
0F
1G
0H
1I
0J
0K
1L
1M
1K
0L
0I
0G
0M
#20000
0)
06
0C
#20250
1)
16
1C
1.!
0>!
0D
1F
1G
#20500
0)
06
0C
#20750
1)
16
1C
0.!
1-!
0=!
1>!
1D
0F
0G
1H
1I
1G
0H
0I
#21000
0)
06
0C
#21250
1)
16
1C
1.!
0>!
0D
1F
0G
1H
1I
#21500
0)
06
0C
#21750
1)
16
1C
0.!
0-!
1,!
0<!
1=!
1>!
1D
0F
1G
0H
0I
1J
0K
1L
1I
0J
0G
1K
0L
1M
0M
#22000
0)
06
0C
#22250
1)
16
1C
1.!
0>!
0D
1F
1G
#22500
0)
06
0C
#22750
1)
16
1C
0.!
1-!
0=!
1>!
1D
0F
0G
1H
0I
1J
1G
0H
1I
0J
0K
1L
1M
1K
0L
0M
#23000
0)
06
0C
#23250
1)
16
1C
1.!
0>!
0D
1F
0G
1H
0I
1J
0K
1L
1M
#23500
0)
06
0C
#23750
1)
16
1C
0.!
0-!
0,!
0+!
1*!
0:!
1;!
1<!
1=!
1>!
1D
0F
1G
0H
1I
0J
1K
0L
0M
1N
0O
1P
1M
0N
0K
0I
0G
1O
0P
1Q
0Q
#24000
0)
06
0C
#24250
1)
16
1C
1.!
0>!
0D
1F
1G
#24500
0)
06
0C
#24750
1)
16
1C
0.!
1-!
0=!
1>!
1D
0F
0G
1H
1I
1G
0H
0I
#25000
0)
06
0C
#25250
1)
16
1C
1.!
0>!
0D
1F
0G
1H
1I
#25500
0)
06
0C
#25750
1)
16
1C
0.!
0-!
1,!
0<!
1=!
1>!
1D
0F
1G
0H
0I
1J
1K
1I
0J
0G
0K
#26000
0)
06
0C
#26250
1)
16
1C
1.!
0>!
0D
1F
1G
#26500
0)
06
0C
#26750
1)
16
1C
0.!
1-!
0=!
1>!
1D
0F
0G
1H
0I
1J
1G
0H
1I
0J
1K
0K
#27000
0)
06
0C
#27250
1)
16
1C
1.!
0>!
0D
1F
0G
1H
0I
1J
1K
#27500
0)
06
0C
#27750
1)
16
1C
0.!
0-!
0,!
1+!
0;!
1<!
1=!
1>!
1D
0F
1G
0H
1I
0J
0K
1L
0M
1N
1K
0L
0I
0G
1M
0N
0O
1P
1Q
1O
0P
0Q
#28000
0)
06
0C
#28250
1)
16
1C
1.!
0>!
0D
1F
1G
#28500
0)
06
0C
#28750
1)
16
1C
0.!
1-!
0=!
1>!
1D
0F
0G
1H
1I
1G
0H
0I
#29000
0)
06
0C
#29250
1)
16
1C
1.!
0>!
0D
1F
0G
1H
1I
#29500
0)
06
0C
#29750
1)
16
1C
0.!
0-!
1,!
0<!
1=!
1>!
1D
0F
1G
0H
0I
1J
0K
1L
1I
0J
0G
1K
0L
0M
1N
0O
1P
1M
0N
1O
0P
1Q
0Q
#30000
0)
06
0C
#30250
1)
16
1C
1.!
0>!
0D
1F
1G
#30500
0)
06
0C
#30750
1)
16
1C
0.!
1-!
0=!
1>!
1D
0F
0G
1H
0I
1J
1G
0H
1I
0J
0K
1L
0M
1N
1K
0L
1M
0N
0O
1P
1Q
1O
0P
0Q
#31000
0)
06
0C
#31250
1)
16
1C
1.!
0>!
0D
1F
0G
1H
0I
1J
0K
1L
0M
1N
0O
1P
1Q
#31500
0)
06
0C
#31750
1)
16
1C
0.!
0-!
0,!
0+!
0*!
0)!
1(!
08!
19!
1:!
1;!
1<!
1=!
1>!
1D
0F
1G
0H
1I
0J
1K
0L
1M
0N
1O
0P
1m
0Q
1R
0b
1j!
0_!
1S
1Q
0R
0O
0M
0K
0I
0G
0m
0S
1_!
#32000
0)
06
0C
#32250
1)
16
1C
1.!
0>!
0D
1F
1G
#32500
0)
06
0C
#32750
1)
16
1C
0.!
1-!
0=!
1>!
1D
0F
0G
1H
1I
1G
0H
0I
#33000
0)
06
0C
#33250
1)
16
1C
1.!
0>!
0D
1F
0G
1H
1I
#33500
0)
06
0C
#33750
1)
16
1C
0.!
0-!
1,!
0<!
1=!
1>!
1D
0F
1G
0H
0I
1J
1K
1I
0J
0G
0K
#34000
0)
06
0C
#34250
1)
16
1C
1.!
0>!
0D
1F
1G
#34500
0)
06
0C
#34750
1)
16
1C
0.!
1-!
0=!
1>!
1D
0F
0G
1H
0I
1J
1G
0H
1I
0J
1K
0K
#35000
0)
06
0C
#35250
1)
16
1C
1.!
0>!
0D
1F
0G
1H
0I
1J
1K
#35500
0)
06
0C
#35750
1)
16
1C
0.!
0-!
0,!
1+!
0;!
1<!
1=!
1>!
1D
0F
1G
0H
1I
0J
0K
1L
1M
1K
0L
0I
0G
0M
#36000
0)
06
0C
#36250
1)
16
1C
1.!
0>!
0D
1F
1G
#36500
0)
06
0C
#36750
1)
16
1C
0.!
1-!
0=!
1>!
1D
0F
0G
1H
1I
1G
0H
0I
#37000
0)
06
0C
#37250
1)
16
1C
1.!
0>!
0D
1F
0G
1H
1I
#37500
0)
06
0C
#37750
1)
16
1C
0.!
0-!
1,!
0<!
1=!
1>!
1D
0F
1G
0H
0I
1J
0K
1L
1I
0J
0G
1K
0L
1M
0M
#38000
0)
06
0C
#38250
1)
16
1C
1.!
0>!
0D
1F
1G
#38500
0)
06
0C
#38750
1)
16
1C
0.!
1-!
0=!
1>!
1D
0F
0G
1H
0I
1J
1G
0H
1I
0J
0K
1L
1M
1K
0L
0M
#39000
0)
06
0C
#39250
1)
16
1C
1.!
0>!
0D
1F
0G
1H
0I
1J
0K
1L
1M
#39500
0)
06
0C
#39750
1)
16
1C
0.!
0-!
0,!
0+!
1*!
0:!
1;!
1<!
1=!
1>!
1D
0F
1G
0H
1I
0J
1K
0L
0M
1N
1O
1M
0N
0K
0I
0G
0O
#40000
0)
06
0C
#40250
1)
16
1C
1.!
0>!
0D
1F
1G
#40500
0)
06
0C
#40750
1)
16
1C
0.!
1-!
0=!
1>!
1D
0F
0G
1H
1I
1G
0H
0I
#41000
0)
06
0C
#41250
1)
16
1C
1.!
0>!
0D
1F
0G
1H
1I
#41500
0)
06
0C
#41750
1)
16
1C
0.!
0-!
1,!
0<!
1=!
1>!
1D
0F
1G
0H
0I
1J
1K
1I
0J
0G
0K
#42000
0)
06
0C
#42250
1)
16
1C
1.!
0>!
0D
1F
1G
#42500
0)
06
0C
#42750
1)
16
1C
0.!
1-!
0=!
1>!
1D
0F
0G
1H
0I
1J
1G
0H
1I
0J
1K
0K
#43000
0)
06
0C
#43250
1)
16
1C
1.!
0>!
0D
1F
0G
1H
0I
1J
1K
#43500
0)
06
0C
#43750
1)
16
1C
0.!
0-!
0,!
1+!
0;!
1<!
1=!
1>!
1D
0F
1G
0H
1I
0J
0K
1L
0M
1N
1K
0L
0I
0G
1M
0N
1O
0O
#44000
0)
06
0C
#44250
1)
16
1C
1.!
0>!
0D
1F
1G
#44500
0)
06
0C
#44750
1)
16
1C
0.!
1-!
0=!
1>!
1D
0F
0G
1H
1I
1G
0H
0I
#45000
0)
06
0C
#45250
1)
16
1C
1.!
0>!
0D
1F
0G
1H
1I
#45500
0)
06
0C
#45750
1)
16
1C
0.!
0-!
1,!
0<!
1=!
1>!
1D
0F
1G
0H
0I
1J
0K
1L
1I
0J
0G
1K
0L
0M
1N
1O
1M
0N
0O
#46000
0)
06
0C
#46250
1)
16
1C
1.!
0>!
0D
1F
1G
#46500
0)
06
0C
#46750
1)
16
1C
0.!
1-!
0=!
1>!
1D
0F
0G
1H
0I
1J
1G
0H
1I
0J
0K
1L
0M
1N
1K
0L
1M
0N
1O
0O
#47000
0)
06
0C
#47250
1)
16
1C
1.!
0>!
0D
1F
0G
1H
0I
1J
0K
1L
0M
1N
1O
#47500
0)
06
0C
#47750
1)
16
1C
0.!
0-!
0,!
0+!
0*!
1)!
09!
1:!
1;!
1<!
1=!
1>!
1D
0F
1G
0H
1I
0J
1K
0L
1M
0N
0O
1P
0Q
1R
1O
0P
0M
0K
0I
0G
1Q
0R
1S
0S
#48000
0)
06
0C
#48250
1)
16
1C
1.!
0>!
0D
1F
1G
#48500
0)
06
0C
#48750
1)
16
1C
0.!
1-!
0=!
1>!
1D
0F
0G
1H
1I
1G
0H
0I
#49000
0)
06
0C
#49250
1)
16
1C
1.!
0>!
0D
1F
0G
1H
1I
#49500
0)
06
0C
#49750
1)
16
1C
0.!
0-!
1,!
0<!
1=!
1>!
1D
0F
1G
0H
0I
1J
1K
1I
0J
0G
0K
#50000
0)
1*
06
1@
1U
0C
0G!
1V
#50250
1)
16
1C
1.!
1/!
11!
10!
0@!
0A!
0?!
0>!
0D
1F
1a
0o
1t
1"!
1^
1d
0k
1l
1v
0~
1!!
0M!
1N!
0V!
0d!
1n!
0l!
0f!
0L!
0X!
1]!
0i!
1G
1$!
0"!
0l
1L!
0J!
1d!
0%!
1I!
1&!
1B
1A
1+
#50500
0)
06
0C
#50750
1)
16
1C
0.!
1-!
0=!
1>!
1D
0F
0G
1H
0I
1J
1G
0H
1I
0J
1K
0K
#51000
0)
06
0C
#51250
1)
16
1C
1.!
0>!
0D
1F
0G
1H
0I
1J
1K
#51500
0)
06
0C
#51750
1)
16
1C
0.!
0-!
0,!
1+!
0;!
1<!
1=!
1>!
1D
0F
1G
0H
1I
0J
1#!
0K
1L
0K!
1M
1K
0L
0I
0G
0M
#52000
0)
06
0C
#52250
1)
16
1C
1.!
0>!
0D
1F
1G
#52500
0)
06
0C
#52750
1)
16
1C
0.!
1-!
0=!
1>!
1D
0F
0G
1H
1I
1G
0H
0I
#53000
0)
06
0C
#53250
1)
16
1C
1.!
0>!
0D
1F
0G
1H
1I
#53500
0)
06
0C
#53750
1)
16
1C
0.!
0-!
1,!
0<!
1=!
1>!
1D
0F
1G
0H
0I
1J
0#!
1K!
0K
1L
1I
0J
0G
1K
0L
1M
0M
#54000
0)
06
0C
#54250
1)
16
1C
1.!
0>!
0D
1F
1G
#54500
0)
06
0C
#54750
1)
16
1C
0.!
1-!
0=!
1>!
1D
0F
0G
1H
0I
1J
1G
0H
1I
0J
0K
1L
1M
1K
0L
0M
#55000
0)
06
0C
#55250
1)
16
1C
1.!
0>!
0D
1F
0G
1H
0I
1J
0K
1L
1M
#55500
0)
06
0C
#55750
1)
16
1C
0.!
0-!
0,!
0+!
1*!
0:!
1;!
1<!
1=!
1>!
1D
0F
1G
0H
1I
0J
1#!
1K
0L
0M
1N
0K!
0O
1P
1M
0N
0K
0I
0G
1O
0P
0Q
1R
1S
1Q
0R
0S
#56000
0)
06
0C
#56250
1)
16
1C
1.!
0>!
0D
1F
1G
#56500
0)
06
0C
#56750
1)
16
1C
0.!
1-!
0=!
1>!
1D
0F
0G
1H
1I
1G
0H
0I
#57000
0)
06
0C
#57250
1)
16
1C
1.!
0>!
0D
1F
0G
1H
1I
#57500
0)
06
0C
#57750
1)
16
1C
0.!
0-!
1,!
0<!
1=!
1>!
1D
0F
1G
0H
0I
1J
0#!
1K!
1K
1I
0J
0G
0K
#58000
0)
06
0C
#58250
1)
16
1C
1.!
0>!
0D
1F
1G
#58500
0)
06
0C
#58750
1)
16
1C
0.!
1-!
0=!
1>!
1D
0F
0G
1H
0I
1J
1G
0H
1I
0J
1K
0K
#59000
0)
06
0C
#59250
1)
16
1C
1.!
0>!
0D
1F
0G
1H
0I
1J
1K
#59500
0)
06
0C
#59750
1)
16
1C
0.!
0-!
0,!
1+!
0;!
1<!
1=!
1>!
1D
0F
1G
0H
1I
0J
1#!
0K
1L
0K!
0M
1N
1K
0L
0I
0G
1M
0N
0O
1P
0Q
1R
1O
0P
1Q
0R
1S
0S
#60000
0)
06
0C
#60250
1)
16
1C
1.!
0>!
0D
1F
1G
#60500
0)
06
0C
#60750
1)
16
1C
0.!
1-!
0=!
1>!
1D
0F
0G
1H
1I
1G
0H
0I
#61000
0)
06
0C
#61250
1)
16
1C
1.!
0>!
0D
1F
0G
1H
1I
#61500
0)
06
0C
#61750
1)
16
1C
0.!
0-!
1,!
0<!
1=!
1>!
1D
0F
1G
0H
0I
1J
0#!
1K!
0K
1L
1I
0J
0G
1K
0L
0M
1N
0O
1P
1M
0N
1O
0P
0Q
1R
1S
1Q
0R
0S
#62000
0)
06
0C
#62250
1)
16
1C
1.!
0>!
0D
1F
1G
#62500
0)
06
0C
#62750
1)
16
1C
0.!
1-!
0=!
1>!
1D
0F
0G
1H
0I
1J
1G
0H
1I
0J
0K
1L
0M
1N
1K
0L
1M
0N
0O
1P
0Q
1R
1O
0P
1Q
0R
1S
0S
#63000
0)
06
0C
#63250
1)
16
1C
1.!
0>!
0D
1F
0G
1H
0I
1J
0K
1L
0M
1N
0O
1P
0Q
1R
1S
#63500
0)
06
0C
#63750
1)
16
1C
0.!
0-!
0,!
0+!
0*!
0)!
0(!
1'!
07!
18!
19!
1:!
1;!
1<!
1=!
1>!
1D
0F
1G
0H
1I
0J
1#!
1K
0L
1M
0N
1O
0P
1Q
0R
0S
0K!
1S
0Q
0O
0M
0K
0I
0G
#64000
0)
06
0C
#64250
1)
16
1C
1.!
0>!
0D
1F
1G
#64500
0)
06
0C
#64750
1)
16
1C
0.!
1-!
0=!
1>!
1D
0F
0G
1H
1I
1G
0H
0I
#65000
0)
06
0C
#65250
1)
16
1C
1.!
0>!
0D
1F
0G
1H
1I
#65500
0)
06
0C
#65750
1)
16
1C
0.!
0-!
1,!
0<!
1=!
1>!
1D
0F
1G
0H
0I
1J
0#!
1K!
1K
1I
0J
0G
0K
#66000
0)
06
0C
#66250
1)
16
1C
1.!
0>!
0D
1F
1G
#66500
0)
06
0C
#66750
1)
16
1C
0.!
1-!
0=!
1>!
1D
0F
0G
1H
0I
1J
1G
0H
1I
0J
1K
0K
#67000
0)
06
0C
#67250
1)
16
1C
1.!
0>!
0D
1F
0G
1H
0I
1J
1K
#67500
0)
06
0C
#67750
1)
16
1C
0.!
0-!
0,!
1+!
0;!
1<!
1=!
1>!
1D
0F
1G
0H
1I
0J
1#!
0K
1L
0K!
1M
1K
0L
0I
0G
0M
#68000
0)
06
0C
#68250
1)
16
1C
1.!
0>!
0D
1F
1G
#68500
0)
06
0C
#68750
1)
16
1C
0.!
1-!
0=!
1>!
1D
0F
0G
1H
1I
1G
0H
0I
#69000
0)
06
0C
#69250
1)
16
1C
1.!
0>!
0D
1F
0G
1H
1I
#69500
0)
06
0C
#69750
1)
16
1C
0.!
0-!
1,!
0<!
1=!
1>!
1D
0F
1G
0H
0I
1J
0#!
1K!
0K
1L
1I
0J
0G
1K
0L
1M
0M
#70000
0)
06
0C
#70250
1)
16
1C
1.!
0>!
0D
1F
1G
#70500
0)
06
0C
#70750
1)
16
1C
0.!
1-!
0=!
1>!
1D
0F
0G
1H
0I
1J
1G
0H
1I
0J
0K
1L
1M
1K
0L
0M
#71000
0)
06
0C
#71250
1)
16
1C
1.!
0>!
0D
1F
0G
1H
0I
1J
0K
1L
1M
#71500
0)
06
0C
