LED_brightness_modifier/simulation/qsim/LED_brightness_modifier.msim.vcd
$comment
	File created using the following command:
		vcd file LED_brightness_modifier.msim.vcd -direction
$end
$date
	Fri Mar 28 19:36:58 2025
$end
$version
	ModelSim Version 2020.1
$end
$timescale
	1ps
$end

$scope module led_brightness_modifier_vhd_vec_tst $end
$var wire 1 ! brightnessIn [7] $end
$var wire 1 " brightnessIn [6] $end
$var wire 1 # brightnessIn [5] $end
$var wire 1 $ brightnessIn [4] $end
$var wire 1 % brightnessIn [3] $end
$var wire 1 & brightnessIn [2] $end
$var wire 1 ' brightnessIn [1] $end
$var wire 1 ( brightnessIn [0] $end
$var wire 1 ) clk $end
$var wire 1 * output $end
$var wire 1 + reset $end

$scope module i1 $end
$var wire 1 , gnd $end
$var wire 1 - vcc $end
$var wire 1 . unknown $end
$var wire 1 / devoe $end
$var wire 1 0 devclrn $end
$var wire 1 1 devpor $end
$var wire 1 2 ww_devoe $end
$var wire 1 3 ww_devclrn $end
$var wire 1 4 ww_devpor $end
$var wire 1 5 ww_clk $end
$var wire 1 6 ww_brightnessIn [7] $end
$var wire 1 7 ww_brightnessIn [6] $end
$var wire 1 8 ww_brightnessIn [5] $end
$var wire 1 9 ww_brightnessIn [4] $end
$var wire 1 : ww_brightnessIn [3] $end
$var wire 1 ; ww_brightnessIn [2] $end
$var wire 1 < ww_brightnessIn [1] $end
$var wire 1 = ww_brightnessIn [0] $end
$var wire 1 > ww_reset $end
$var wire 1 ? ww_output $end
$var wire 1 @ \Mux2_rtl_0|auto_generated|ram_block1a2_PORTAADDR_bus\ [7] $end
$var wire 1 A \Mux2_rtl_0|auto_generated|ram_block1a2_PORTAADDR_bus\ [6] $end
$var wire 1 B \Mux2_rtl_0|auto_generated|ram_block1a2_PORTAADDR_bus\ [5] $end
$var wire 1 C \Mux2_rtl_0|auto_generated|ram_block1a2_PORTAADDR_bus\ [4] $end
$var wire 1 D \Mux2_rtl_0|auto_generated|ram_block1a2_PORTAADDR_bus\ [3] $end
$var wire 1 E \Mux2_rtl_0|auto_generated|ram_block1a2_PORTAADDR_bus\ [2] $end
$var wire 1 F \Mux2_rtl_0|auto_generated|ram_block1a2_PORTAADDR_bus\ [1] $end
$var wire 1 G \Mux2_rtl_0|auto_generated|ram_block1a2_PORTAADDR_bus\ [0] $end
$var wire 1 H \Mux2_rtl_0|auto_generated|ram_block1a2_PORTADATAOUT_bus\ [0] $end
$var wire 1 I \Mux2_rtl_0|auto_generated|ram_block1a0_PORTAADDR_bus\ [7] $end
$var wire 1 J \Mux2_rtl_0|auto_generated|ram_block1a0_PORTAADDR_bus\ [6] $end
$var wire 1 K \Mux2_rtl_0|auto_generated|ram_block1a0_PORTAADDR_bus\ [5] $end
$var wire 1 L \Mux2_rtl_0|auto_generated|ram_block1a0_PORTAADDR_bus\ [4] $end
$var wire 1 M \Mux2_rtl_0|auto_generated|ram_block1a0_PORTAADDR_bus\ [3] $end
$var wire 1 N \Mux2_rtl_0|auto_generated|ram_block1a0_PORTAADDR_bus\ [2] $end
$var wire 1 O \Mux2_rtl_0|auto_generated|ram_block1a0_PORTAADDR_bus\ [1] $end
$var wire 1 P \Mux2_rtl_0|auto_generated|ram_block1a0_PORTAADDR_bus\ [0] $end
$var wire 1 Q \Mux2_rtl_0|auto_generated|ram_block1a0_PORTADATAOUT_bus\ [0] $end
$var wire 1 R \Mux2_rtl_0|auto_generated|ram_block1a1_PORTAADDR_bus\ [7] $end
$var wire 1 S \Mux2_rtl_0|auto_generated|ram_block1a1_PORTAADDR_bus\ [6] $end
$var wire 1 T \Mux2_rtl_0|auto_generated|ram_block1a1_PORTAADDR_bus\ [5] $end
$var wire 1 U \Mux2_rtl_0|auto_generated|ram_block1a1_PORTAADDR_bus\ [4] $end
$var wire 1 V \Mux2_rtl_0|auto_generated|ram_block1a1_PORTAADDR_bus\ [3] $end
$var wire 1 W \Mux2_rtl_0|auto_generated|ram_block1a1_PORTAADDR_bus\ [2] $end
$var wire 1 X \Mux2_rtl_0|auto_generated|ram_block1a1_PORTAADDR_bus\ [1] $end
$var wire 1 Y \Mux2_rtl_0|auto_generated|ram_block1a1_PORTAADDR_bus\ [0] $end
$var wire 1 Z \Mux2_rtl_0|auto_generated|ram_block1a1_PORTADATAOUT_bus\ [0] $end
$var wire 1 [ \Mux2_rtl_0|auto_generated|ram_block1a3_PORTAADDR_bus\ [7] $end
$var wire 1 \ \Mux2_rtl_0|auto_generated|ram_block1a3_PORTAADDR_bus\ [6] $end
$var wire 1 ] \Mux2_rtl_0|auto_generated|ram_block1a3_PORTAADDR_bus\ [5] $end
$var wire 1 ^ \Mux2_rtl_0|auto_generated|ram_block1a3_PORTAADDR_bus\ [4] $end
$var wire 1 _ \Mux2_rtl_0|auto_generated|ram_block1a3_PORTAADDR_bus\ [3] $end
$var wire 1 ` \Mux2_rtl_0|auto_generated|ram_block1a3_PORTAADDR_bus\ [2] $end
$var wire 1 a \Mux2_rtl_0|auto_generated|ram_block1a3_PORTAADDR_bus\ [1] $end
$var wire 1 b \Mux2_rtl_0|auto_generated|ram_block1a3_PORTAADDR_bus\ [0] $end
$var wire 1 c \Mux2_rtl_0|auto_generated|ram_block1a3_PORTADATAOUT_bus\ [0] $end
$var wire 1 d \Mux2_rtl_0|auto_generated|ram_block1a4_PORTAADDR_bus\ [7] $end
$var wire 1 e \Mux2_rtl_0|auto_generated|ram_block1a4_PORTAADDR_bus\ [6] $end
$var wire 1 f \Mux2_rtl_0|auto_generated|ram_block1a4_PORTAADDR_bus\ [5] $end
$var wire 1 g \Mux2_rtl_0|auto_generated|ram_block1a4_PORTAADDR_bus\ [4] $end
$var wire 1 h \Mux2_rtl_0|auto_generated|ram_block1a4_PORTAADDR_bus\ [3] $end
$var wire 1 i \Mux2_rtl_0|auto_generated|ram_block1a4_PORTAADDR_bus\ [2] $end
$var wire 1 j \Mux2_rtl_0|auto_generated|ram_block1a4_PORTAADDR_bus\ [1] $end
$var wire 1 k \Mux2_rtl_0|auto_generated|ram_block1a4_PORTAADDR_bus\ [0] $end
$var wire 1 l \Mux2_rtl_0|auto_generated|ram_block1a4_PORTADATAOUT_bus\ [0] $end
$var wire 1 m \Mux2_rtl_0|auto_generated|ram_block1a5_PORTAADDR_bus\ [7] $end
$var wire 1 n \Mux2_rtl_0|auto_generated|ram_block1a5_PORTAADDR_bus\ [6] $end
$var wire 1 o \Mux2_rtl_0|auto_generated|ram_block1a5_PORTAADDR_bus\ [5] $end
$var wire 1 p \Mux2_rtl_0|auto_generated|ram_block1a5_PORTAADDR_bus\ [4] $end
$var wire 1 q \Mux2_rtl_0|auto_generated|ram_block1a5_PORTAADDR_bus\ [3] $end
$var wire 1 r \Mux2_rtl_0|auto_generated|ram_block1a5_PORTAADDR_bus\ [2] $end
$var wire 1 s \Mux2_rtl_0|auto_generated|ram_block1a5_PORTAADDR_bus\ [1] $end
$var wire 1 t \Mux2_rtl_0|auto_generated|ram_block1a5_PORTAADDR_bus\ [0] $end
$var wire 1 u \Mux2_rtl_0|auto_generated|ram_block1a5_PORTADATAOUT_bus\ [0] $end
$var wire 1 v \output~output_o\ $end
$var wire 1 w \clk~input_o\ $end
$var wire 1 x \reset~input_o\ $end
$var wire 1 y \gamma_val[5]~1_q\ $end
$var wire 1 z \Add0~29_sumout\ $end
$var wire 1 { \Add0~30\ $end
$var wire 1 | \Add0~25_sumout\ $end
$var wire 1 } \Add0~26\ $end
$var wire 1 ~ \Add0~21_sumout\ $end
$var wire 1 !! \Add0~22\ $end
$var wire 1 "! \Add0~1_sumout\ $end
$var wire 1 #! \brightnessIn[0]~input_o\ $end
$var wire 1 $! \brightnessIn[1]~input_o\ $end
$var wire 1 %! \brightnessIn[2]~input_o\ $end
$var wire 1 &! \brightnessIn[3]~input_o\ $end
$var wire 1 '! \brightnessIn[4]~input_o\ $end
$var wire 1 (! \brightnessIn[5]~input_o\ $end
$var wire 1 )! \brightnessIn[6]~input_o\ $end
$var wire 1 *! \brightnessIn[7]~input_o\ $end
$var wire 1 +! \Mux2_rtl_0|auto_generated|ram_block1a2~portadataout\ $end
$var wire 1 ,! \Add0~2\ $end
$var wire 1 -! \Add0~17_sumout\ $end
$var wire 1 .! \Add0~18\ $end
$var wire 1 /! \Add0~5_sumout\ $end
$var wire 1 0! \Mux2_rtl_0|auto_generated|ram_block1a0~portadataout\ $end
$var wire 1 1! \Add0~6\ $end
$var wire 1 2! \Add0~13_sumout\ $end
$var wire 1 3! \Add0~14\ $end
$var wire 1 4! \Add0~9_sumout\ $end
$var wire 1 5! \Mux0~0_combout\ $end
$var wire 1 6! \Mux0~1_combout\ $end
$var wire 1 7! \Mux1~0_combout\ $end
$var wire 1 8! \Mux1~1_combout\ $end
$var wire 1 9! \LessThan0~0_combout\ $end
$var wire 1 :! \Mux2_rtl_0|auto_generated|ram_block1a1~portadataout\ $end
$var wire 1 ;! \LessThan0~1_combout\ $end
$var wire 1 <! \Mux2_rtl_0|auto_generated|ram_block1a3~portadataout\ $end
$var wire 1 =! \Mux2_rtl_0|auto_generated|ram_block1a4~portadataout\ $end
$var wire 1 >! \Mux2_rtl_0|auto_generated|ram_block1a5~portadataout\ $end
$var wire 1 ?! \LessThan0~2_combout\ $end
$var wire 1 @! \LessThan0~3_combout\ $end
$var wire 1 A! \LessThan0~4_combout\ $end
$var wire 1 B! \LessThan0~5_combout\ $end
$var wire 1 C! \LessThan0~6_combout\ $end
$var wire 1 D! \LessThan0~7_combout\ $end
$var wire 1 E! cnt_8bit [7] $end
$var wire 1 F! cnt_8bit [6] $end
$var wire 1 G! cnt_8bit [5] $end
$var wire 1 H! cnt_8bit [4] $end
$var wire 1 I! cnt_8bit [3] $end
$var wire 1 J! cnt_8bit [2] $end
$var wire 1 K! cnt_8bit [1] $end
$var wire 1 L! cnt_8bit [0] $end
$var wire 1 M! gamma_val [7] $end
$var wire 1 N! gamma_val [6] $end
$var wire 1 O! gamma_val [5] $end
$var wire 1 P! gamma_val [4] $end
$var wire 1 Q! gamma_val [3] $end
$var wire 1 R! gamma_val [2] $end
$var wire 1 S! gamma_val [1] $end
$var wire 1 T! gamma_val [0] $end
$var wire 1 U! \Mux2_rtl_0|auto_generated|ALT_INV_ram_block1a5~portadataout\ $end
$var wire 1 V! ALT_INV_cnt_8bit [7] $end
$var wire 1 W! ALT_INV_cnt_8bit [6] $end
$var wire 1 X! ALT_INV_cnt_8bit [5] $end
$var wire 1 Y! ALT_INV_cnt_8bit [4] $end
$var wire 1 Z! ALT_INV_cnt_8bit [3] $end
$var wire 1 [! ALT_INV_cnt_8bit [2] $end
$var wire 1 \! ALT_INV_cnt_8bit [1] $end
$var wire 1 ]! ALT_INV_cnt_8bit [0] $end
$var wire 1 ^! \Mux2_rtl_0|auto_generated|ALT_INV_ram_block1a4~portadataout\ $end
$var wire 1 _! \Mux2_rtl_0|auto_generated|ALT_INV_ram_block1a3~portadataout\ $end
$var wire 1 `! \Mux2_rtl_0|auto_generated|ALT_INV_ram_block1a1~portadataout\ $end
$var wire 1 a! ALT_INV_gamma_val [7] $end
$var wire 1 b! ALT_INV_gamma_val [6] $end
$var wire 1 c! \Mux2_rtl_0|auto_generated|ALT_INV_ram_block1a0~portadataout\ $end
$var wire 1 d! \Mux2_rtl_0|auto_generated|ALT_INV_ram_block1a2~portadataout\ $end
$var wire 1 e! \ALT_INV_gamma_val[5]~1_q\ $end
$var wire 1 f! \ALT_INV_LessThan0~0_combout\ $end
$var wire 1 g! \ALT_INV_LessThan0~1_combout\ $end
$var wire 1 h! \ALT_INV_LessThan0~2_combout\ $end
$var wire 1 i! \ALT_INV_LessThan0~4_combout\ $end
$var wire 1 j! \ALT_INV_LessThan0~3_combout\ $end
$var wire 1 k! \ALT_INV_LessThan0~5_combout\ $end
$var wire 1 l! \ALT_INV_LessThan0~6_combout\ $end
$var wire 1 m! \ALT_INV_Mux0~0_combout\ $end
$var wire 1 n! \ALT_INV_Mux1~0_combout\ $end
$var wire 1 o! \ALT_INV_brightnessIn[1]~input_o\ $end
$var wire 1 p! \ALT_INV_brightnessIn[2]~input_o\ $end
$var wire 1 q! \ALT_INV_brightnessIn[3]~input_o\ $end
$var wire 1 r! \ALT_INV_brightnessIn[4]~input_o\ $end
$var wire 1 s! \ALT_INV_brightnessIn[6]~input_o\ $end
$var wire 1 t! \ALT_INV_brightnessIn[5]~input_o\ $end
$var wire 1 u! \ALT_INV_brightnessIn[7]~input_o\ $end
$upscope $end
$upscope $end
$enddefinitions $end
#0
$dumpvars
0)
0*
0+
0,
1-
x.
1/
10
11
12
13
14
05
0>
0?
0v
0w
0x
0y
1z
0{
0|
0}
0~
0!!
0"!
0#!
0$!
0%!
0&!
0'!
0(!
0)!
0*!
0+!
0,!
0-!
0.!
0/!
00!
01!
02!
03!
04!
05!
06!
07!
08!
19!
0:!
1;!
0<!
0=!
0>!
0?!
0@!
0A!
0B!
1C!
0D!
1U!
1^!
1_!
1`!
1c!
1d!
1e!
0f!
0g!
1h!
1i!
1j!
1k!
0l!
1m!
1n!
1o!
1p!
1q!
1r!
1s!
1t!
1u!
0!
0"
0#
0$
0%
0&
0'
0(
06
07
08
09
0:
0;
0<
0=
0H
0Q
0Z
0c
0l
0u
0E!
0F!
0G!
0H!
0I!
0J!
0K!
0L!
0M!
0N!
xO!
xP!
xQ!
xR!
xS!
xT!
1V!
1W!
1X!
1Y!
1Z!
1[!
1\!
1]!
1a!
1b!
0@
0A
0B
0C
0D
0E
0F
0G
0I
0J
0K
0L
0M
0N
0O
0P
0R
0S
0T
0U
0V
0W
0X
0Y
0[
0\
0]
0^
0_
0`
0a
0b
0d
0e
0f
0g
0h
0i
0j
0k
0m
0n
0o
0p
0q
0r
0s
0t
$end
#500
1)
15
1w
1L!
0]!
0z
1{
1|
#1000
0)
05
0w
#1500
1)
15
1w
0L!
1K!
0\!
1]!
1z
0{
0|
1}
1~
1|
0}
0~
#2000
0)
05
0w
#2500
1)
15
1w
1L!
0]!
0z
1{
0|
1}
1~
#3000
0)
05
0w
#3500
1)
15
1w
0L!
0K!
1J!
0[!
1\!
1]!
1z
0{
1|
0}
0~
1!!
1"!
1~
0!!
0|
0"!
#4000
0)
05
0w
#4500
1)
15
1w
1L!
0]!
0z
1{
1|
#5000
0)
05
0w
#5500
1)
15
1w
0L!
1K!
0\!
1]!
1z
0{
0|
1}
0~
1!!
1|
0}
1~
0!!
1"!
0"!
#6000
0)
05
0w
#6500
1)
15
1w
1L!
0]!
0z
1{
0|
1}
0~
1!!
1"!
#7000
0)
05
0w
#7500
1)
15
1w
0L!
0K!
0J!
1I!
0Z!
1[!
1\!
1]!
1z
0{
1|
0}
1~
0!!
0"!
1,!
1-!
1"!
0,!
0~
0|
0-!
#8000
0)
05
0w
#8500
1)
15
1w
1L!
0]!
0z
1{
1|
#9000
0)
05
0w
#9500
1)
15
1w
0L!
1K!
0\!
1]!
1z
0{
0|
1}
1~
1|
0}
0~
#10000
0)
1!
05
16
1*!
0w
0u!
1m
1d
1[
1R
1I
1@
#10500
1)
15
1w
1L!
0]!
0z
1{
0|
1}
1~
#10501
1Q
1c
1l
1u
10!
1<!
1=!
1>!
0U!
0^!
0_!
0c!
0;!
0C!
1@!
0j!
1l!
1g!
1D!
1v
1?
1*
#11000
0)
05
0w
#11500
1)
15
1w
0L!
0K!
1J!
0[!
1\!
1]!
1z
0{
1?!
1|
0}
0~
1!!
0h!
0"!
1,!
1~
0!!
0|
1"!
0,!
1-!
0-!
#12000
0)
05
0w
#12500
1)
15
1w
1L!
0]!
0z
1{
0?!
1h!
1|
#13000
0)
05
0w
#13500
1)
15
1w
0L!
1K!
0\!
1]!
1z
0{
1?!
0|
1}
0@!
1j!
0h!
0~
1!!
1|
0}
1@!
1~
0!!
0"!
1,!
0j!
1-!
1"!
0,!
0-!
#14000
0)
05
0w
#14500
1)
15
1w
1L!
0]!
0z
1{
0?!
1h!
0|
1}
0@!
0~
1!!
1j!
0"!
1,!
1-!
#15000
0)
05
0w
#15500
1)
15
1w
0L!
0K!
0J!
0I!
1H!
0Y!
1Z!
1[!
1\!
1]!
1z
0{
1?!
1|
0}
1~
0!!
1@!
1"!
0,!
0-!
1.!
0j!
0h!
1/!
1-!
0.!
0"!
0~
0|
0/!
#16000
0)
05
0w
#16500
1)
15
1w
1L!
0]!
0z
1{
0?!
1h!
1|
#17000
0)
05
0w
#17500
1)
15
1w
0L!
1K!
0\!
1]!
1z
0{
1?!
0|
1}
0h!
1~
1|
0}
0~
#18000
0)
05
0w
#18500
1)
15
1w
1L!
0]!
0z
1{
0?!
1h!
0|
1}
1~
#19000
0)
05
0w
#19500
1)
15
1w
0L!
0K!
1J!
0[!
1\!
1]!
1z
0{
1?!
1|
0}
0~
1!!
0h!
1"!
1~
0!!
0|
0"!
#20000
0)
05
0w
#20500
1)
15
1w
1L!
0]!
0z
1{
0?!
1h!
1|
#21000
0)
05
0w
#21500
1)
15
1w
0L!
1K!
0\!
1]!
1z
0{
1?!
0|
1}
0@!
1j!
0h!
0~
1!!
1|
0}
1@!
1~
0!!
1"!
0j!
0"!
#22000
0)
05
0w
#22500
1)
15
1w
1L!
0]!
0z
1{
0?!
1h!
0|
1}
0@!
0~
1!!
1j!
1"!
#23000
0)
05
0w
#23500
1)
15
1w
0L!
0K!
0J!
1I!
0Z!
1[!
1\!
1]!
1z
0{
1?!
1|
0}
1~
0!!
1@!
0"!
1,!
0j!
0h!
0-!
1.!
1"!
0,!
0~
0|
1-!
0.!
1/!
0/!
#24000
0)
05
0w
#24500
1)
15
1w
1L!
0]!
0z
1{
0?!
1h!
1|
#25000
0)
05
0w
#25500
1)
15
1w
0L!
1K!
0\!
1]!
1z
0{
1?!
0|
1}
0h!
1~
1|
0}
0~
#26000
0)
05
0w
#26500
1)
15
1w
1L!
0]!
0z
1{
0?!
1h!
0|
1}
1~
#27000
0)
05
0w
#27500
1)
15
1w
0L!
0K!
1J!
0[!
1\!
1]!
1z
0{
1?!
1|
0}
0~
1!!
0h!
0"!
1,!
1~
0!!
0|
1"!
0,!
0-!
1.!
1/!
1-!
0.!
0/!
#28000
0)
05
0w
#28500
1)
15
1w
1L!
0]!
0z
1{
0?!
1h!
1|
#29000
0)
05
0w
#29500
1)
15
1w
0L!
1K!
0\!
1]!
1z
0{
1?!
0|
1}
0@!
1j!
0h!
0~
1!!
1|
0}
1@!
1~
0!!
0"!
1,!
0j!
0-!
1.!
1"!
0,!
1-!
0.!
1/!
0/!
#30000
0)
05
0w
#30500
1)
15
1w
1L!
0]!
0z
1{
0?!
1h!
0|
1}
0@!
0~
1!!
1j!
0"!
1,!
0-!
1.!
1/!
#31000
0)
05
0w
#31500
1)
15
1w
0L!
0K!
0J!
0I!
0H!
1G!
0X!
1Y!
1Z!
1[!
1\!
1]!
1z
0{
1?!
1|
0}
1~
0!!
1@!
1"!
0,!
1-!
0.!
0/!
11!
1;!
1C!
0l!
0g!
0j!
0h!
12!
1/!
01!
0-!
0"!
0~
0|
02!
#32000
0)
05
0w
#32500
1)
15
1w
1L!
0]!
0z
1{
0?!
1h!
1|
#33000
0)
05
0w
#33500
1)
15
1w
0L!
1K!
0\!
1]!
1z
0{
1?!
0|
1}
0h!
1~
1|
0}
0~
#34000
0)
05
0w
#34500
1)
15
1w
1L!
0]!
0z
1{
0?!
1h!
0|
1}
1~
#35000
0)
05
0w
#35500
1)
15
1w
0L!
0K!
1J!
0[!
1\!
1]!
1z
0{
1?!
1|
0}
0~
1!!
0h!
1"!
1~
0!!
0|
0"!
#36000
0)
05
0w
#36500
1)
15
1w
1L!
0]!
0z
1{
0?!
1h!
1|
#37000
0)
05
0w
#37500
1)
15
1w
0L!
1K!
0\!
1]!
1z
0{
1?!
0|
1}
0@!
1j!
0h!
0~
1!!
1|
0}
1@!
0D!
1~
0!!
1"!
0j!
1D!
0"!
0v
0?
0*
1v
1?
1*
#38000
0)
05
0w
#38500
1)
15
1w
1L!
0]!
0z
1{
0?!
1h!
0|
1}
0@!
0~
1!!
1j!
0D!
1"!
0v
0?
0*
#39000
0)
05
0w
#39500
1)
15
1w
0L!
0K!
0J!
1I!
0Z!
1[!
1\!
1]!
1z
0{
1?!
1|
0}
1~
0!!
1@!
0"!
1,!
0j!
0h!
1-!
1"!
0,!
0~
0|
0-!
#40000
0)
05
0w
#40500
1)
15
1w
1L!
0]!
0z
1{
0?!
1h!
1|
#41000
0)
05
0w
#41500
1)
15
1w
0L!
1K!
0\!
1]!
1z
0{
1?!
0|
1}
0h!
1~
1|
0}
0~
#42000
0)
05
0w
#42500
1)
15
1w
1L!
0]!
0z
1{
0?!
1h!
0|
1}
1~
#43000
0)
05
0w
#43500
1)
15
1w
0L!
0K!
1J!
0[!
1\!
1]!
1z
0{
1?!
1|
0}
0~
1!!
0h!
0"!
1,!
1~
0!!
0|
1"!
0,!
1-!
0-!
#44000
0)
05
0w
#44500
1)
15
1w
1L!
0]!
0z
1{
0?!
1h!
1|
#45000
0)
05
0w
#45500
1)
15
1w
0L!
1K!
0\!
1]!
1z
0{
1?!
0|
1}
0@!
1j!
0h!
0~
1!!
1|
0}
1@!
1~
0!!
0"!
1,!
0j!
1-!
1"!
0,!
0-!
#46000
0)
05
0w
#46500
1)
15
1w
1L!
0]!
0z
1{
0?!
1h!
0|
1}
0@!
0~
1!!
1j!
0"!
1,!
1-!
#47000
0)
05
0w
#47500
1)
15
1w
0L!
0K!
0J!
0I!
1H!
0Y!
1Z!
1[!
1\!
1]!
1z
0{
1?!
1|
0}
1~
0!!
1@!
1"!
0,!
0-!
1.!
0;!
1g!
0j!
0h!
0/!
11!
1-!
0.!
0"!
0~
0|
1/!
01!
12!
02!
#48000
0)
05
0w
#48500
1)
15
1w
1L!
0]!
0z
1{
0?!
1h!
1|
#49000
0)
05
0w
#49500
1)
15
1w
0L!
1K!
0\!
1]!
1z
0{
1?!
0|
1}
0h!
1~
1|
0}
0~
#50000
0)
05
0w
#50500
1)
15
1w
1L!
0]!
0z
1{
0?!
1h!
0|
1}
1~
#51000
0)
05
0w
#51500
1)
15
1w
0L!
0K!
1J!
0[!
1\!
1]!
1z
0{
1?!
1|
0}
0~
1!!
0h!
1"!
1~
0!!
0|
0"!
#52000
0)
05
0w
#52500
1)
15
1w
1L!
0]!
0z
1{
0?!
1h!
1|
#53000
0)
05
0w
#53500
1)
15
1w
0L!
1K!
0\!
1]!
1z
0{
1?!
0|
1}
0@!
1j!
0h!
0~
1!!
1|
0}
1@!
1~
0!!
1"!
0j!
0"!
#54000
0)
05
0w
#54500
1)
15
1w
1L!
0]!
0z
1{
0?!
1h!
0|
1}
0@!
0~
1!!
1j!
1"!
#55000
0)
05
0w
#55500
1)
15
1w
0L!
0K!
0J!
1I!
0Z!
1[!
1\!
1]!
1z
0{
1?!
1|
0}
1~
0!!
1@!
0"!
1,!
0j!
0h!
0-!
1.!
1"!
0,!
0~
0|
1-!
0.!
0/!
11!
12!
1/!
01!
02!
#56000
0)
05
0w
#56500
1)
15
1w
1L!
0]!
0z
1{
0?!
1h!
1|
#57000
0)
05
0w
#57500
1)
15
1w
0L!
1K!
0\!
1]!
1z
0{
1?!
0|
1}
0h!
1~
1|
0}
0~
#58000
0)
05
0w
#58500
1)
15
1w
1L!
0]!
0z
1{
0?!
1h!
0|
1}
1~
#59000
0)
05
0w
#59500
1)
15
1w
0L!
0K!
1J!
0[!
1\!
1]!
1z
0{
1?!
1|
0}
0~
1!!
0h!
0"!
1,!
1~
0!!
0|
1"!
0,!
0-!
1.!
0/!
11!
1-!
0.!
1/!
01!
12!
02!
#60000
0)
05
0w
#60500
1)
15
1w
1L!
0]!
0z
1{
0?!
1h!
1|
#61000
0)
05
0w
#61500
1)
15
1w
0L!
1K!
0\!
1]!
1z
0{
1?!
0|
1}
0@!
1j!
0h!
0~
1!!
1|
0}
1@!
1~
0!!
0"!
1,!
0j!
0-!
1.!
1"!
0,!
1-!
0.!
0/!
11!
12!
1/!
01!
02!
#62000
0)
05
0w
#62500
1)
15
1w
1L!
0]!
0z
1{
0?!
1h!
0|
1}
0@!
0~
1!!
1j!
0"!
1,!
0-!
1.!
0/!
11!
12!
#63000
0)
05
0w
#63500
1)
15
1w
0L!
0K!
0J!
0I!
0H!
0G!
1F!
0W!
1X!
1Y!
1Z!
1[!
1\!
1]!
1z
0{
1?!
1|
0}
1~
0!!
1@!
1"!
0,!
1-!
0.!
1/!
01!
0C!
02!
13!
09!
1f!
1l!
0j!
0h!
14!
12!
03!
0/!
0-!
0"!
0~
0|
1D!
1C!
04!
0l!
0D!
1v
1?
1*
0v
0?
0*
#64000
0)
05
0w
#64500
1)
15
1w
1L!
0]!
0z
1{
0?!
1h!
1|
#65000
0)
05
0w
#65500
1)
15
1w
0L!
1K!
0\!
1]!
1z
0{
1?!
0|
1}
0h!
1~
1|
0}
0~
#66000
0)
05
0w
#66500
1)
15
1w
1L!
0]!
0z
1{
0?!
1h!
0|
1}
1~
#67000
0)
05
0w
#67500
1)
15
1w
0L!
0K!
1J!
0[!
1\!
1]!
1z
0{
1?!
1|
0}
0~
1!!
0h!
1"!
1~
0!!
0|
0"!
#68000
0)
05
0w
#68500
1)
15
1w
1L!
0]!
0z
1{
0?!
1h!
1|
#69000
0)
05
0w
#69500
1)
15
1w
0L!
1K!
0\!
1]!
1z
0{
1?!
0|
1}
0@!
1j!
0h!
0~
1!!
1|
0}
1@!
1~
0!!
1"!
0j!
0"!
#70000
0)
05
0w
#70500
1)
15
1w
1L!
0]!
0z
1{
0?!
1h!
0|
1}
0@!
0~
1!!
1j!
1"!
#71000
0)
05
0w
#71500
1)
15
1w
0L!
0K!
0J!
1I!
0Z!
1[!
1\!
1]!
1z
0{
1?!
1|
0}
1~
0!!
1@!
0"!
1,!
0j!
0h!
1-!
1"!
0,!
0~
0|
0-!
#72000
0)
05
0w
#72500
1)
15
1w
1L!
0]!
0z
1{
0?!
1h!
1|
#73000
0)
05
0w
#73500
1)
15
1w
0L!
1K!
0\!
1]!
1z
0{
1?!
0|
1}
0h!
1~
1|
0}
0~
#74000
0)
05
0w
#74500
1)
15
1w
1L!
0]!
0z
1{
0?!
1h!
0|
1}
1~
#75000
0)
05
0w
#75500
1)
15
1w
0L!
0K!
1J!
0[!
1\!
1]!
1z
0{
1?!
1|
0}
0~
1!!
0h!
0"!
1,!
1~
0!!
0|
1"!
0,!
1-!
0-!
#76000
0)
05
0w
#76500
1)
15
1w
1L!
0]!
0z
1{
0?!
1h!
1|
#77000
0)
05
0w
#77500
1)
15
1w
0L!
1K!
0\!
1]!
1z
0{
1?!
0|
1}
0@!
1j!
0h!
0~
1!!
1|
0}
1@!
1~
0!!
0"!
1,!
0j!
1-!
1"!
0,!
0-!
#78000
0)
05
0w
#78500
1)
15
1w
1L!
0]!
0z
1{
0?!
1h!
0|
1}
0@!
0~
1!!
1j!
0"!
1,!
1-!
#79000
0)
05
0w
#79500
1)
15
1w
0L!
0K!
0J!
0I!
1H!
0Y!
1Z!
1[!
1\!
1]!
1z
0{
1?!
1|
0}
1~
0!!
1@!
1"!
0,!
0-!
1.!
0j!
0h!
1/!
1-!
0.!
0"!
0~
0|
0/!
#80000
0)
05
0w
#80500
1)
15
1w
1L!
0]!
0z
1{
0?!
1h!
1|
#81000
0)
05
0w
#81500
1)
15
1w
0L!
1K!
0\!
1]!
1z
0{
1?!
0|
1}
0h!
1~
1|
0}
0~
#82000
0)
05
0w
#82500
1)
15
1w
1L!
0]!
0z
1{
0?!
1h!
0|
1}
1~
#83000
0)
05
0w
#83500
1)
15
1w
0L!
0K!
1J!
0[!
1\!
1]!
1z
0{
1?!
1|
0}
0~
1!!
0h!
1"!
1~
0!!
0|
0"!
#84000
0)
05
0w
#84500
1)
15
1w
1L!
0]!
0z
1{
0?!
1h!
1|
#85000
0)
05
0w
#85500
1)
15
1w
0L!
1K!
0\!
1]!
1z
0{
1?!
0|
1}
0@!
1j!
0h!
0~
1!!
1|
0}
1@!
1~
0!!
1"!
0j!
0"!
#86000
0)
05
0w
#86500
1)
15
1w
1L!
0]!
0z
1{
0?!
1h!
0|
1}
0@!
0~
1!!
1j!
1"!
#87000
0)
05
0w
#87500
1)
15
1w
0L!
0K!
0J!
1I!
0Z!
1[!
1\!
1]!
1z
0{
1?!
1|
0}
1~
0!!
1@!
0"!
1,!
0j!
0h!
0-!
1.!
1"!
0,!
0~
0|
1-!
0.!
1/!
0/!
#88000
0)
05
0w
#88500
1)
15
1w
1L!
0]!
0z
1{
0?!
1h!
1|
#89000
0)
05
0w
#89500
1)
15
1w
0L!
1K!
0\!
1]!
1z
0{
1?!
0|
1}
0h!
1~
1|
0}
0~
#90000
0)
05
0w
#90500
1)
15
1w
1L!
0]!
0z
1{
0?!
1h!
0|
1}
1~
#91000
0)
05
0w
#91500
1)
15
1w
0L!
0K!
1J!
0[!
1\!
1]!
1z
0{
1?!
1|
0}
0~
1!!
0h!
0"!
1,!
1~
0!!
0|
1"!
0,!
0-!
1.!
1/!
1-!
0.!
0/!
#92000
0)
05
0w
#92500
1)
15
1w
1L!
0]!
0z
1{
0?!
1h!
1|
#93000
0)
05
0w
#93500
1)
15
1w
0L!
1K!
0\!
1]!
1z
0{
1?!
0|
1}
0@!
1j!
0h!
0~
1!!
1|
0}
1@!
1~
0!!
0"!
1,!
0j!
0-!
1.!
1"!
0,!
1-!
0.!
1/!
0/!
#94000
0)
05
0w
#94500
1)
15
1w
1L!
0]!
0z
1{
0?!
1h!
0|
1}
0@!
0~
1!!
1j!
0"!
1,!
0-!
1.!
1/!
#95000
0)
05
0w
